{
  "project_info": {
    "project_number": "832218493639",
    "firebase_url": "https://fir-boilerplate-430a0.firebaseio.com",
    "project_id": "fir-boilerplate-430a0",
    "storage_bucket": "fir-boilerplate-430a0.appspot.com"
  },
  "client": [
    {
      "client_info": {
        "mobilesdk_app_id": "1:832218493639:android:08d0ef738e3640d0",
        "android_client_info": {
          "package_name": "org.reactjs.native.example.firebaseboilerplate"
        }
      },
      "oauth_client": [
        {
          "client_id": "832218493639-efinprg6f1bn5604cl54jt2qcfva6mtu.apps.googleusercontent.com",
          "client_type": 1,
          "android_info": {
            "package_name": "org.reactjs.native.example.firebaseboilerplate",
            "certificate_hash": "60178d84c2f160fc691e259c1380ac8d3b01f49e"
          }
        },
        {
          "client_id": "832218493639-e3ekohmo6hvgeol5jc64isopn87i8be0.apps.googleusercontent.com",
          "client_type": 3
        }
      ],
      "api_key": [
        {
          "current_key": "AIzaSyALRfosZSKlpjJhYAVRbDWD9T-l1141wHQ"
        }
      ],
      "services": {
        "analytics_service": {
          "status": 1
        },
        "appinvite_service": {
          "status": 2,
          "other_platform_oauth_client": [
            {
              "client_id": "832218493639-e3ekohmo6hvgeol5jc64isopn87i8be0.apps.googleusercontent.com",
              "client_type": 3
            },
            {
              "client_id": "832218493639-6cmvd7hoqd9qmm378pumk9lacjt37e30.apps.googleusercontent.com",
              "client_type": 2,
              "ios_info": {
                "bundle_id": "org.reactjs.native.example.firebaseboilerplate"
              }
            }
          ]
        },
        "ads_service": {
          "status": 2
        }
      }
    }
  ],
  "configuration_version": "1"
}